-------------------------------------------------------------------------------
Test set: com.example.trabalhoAvaliativo.TrabalhoAvaliativoApplicationTests
-------------------------------------------------------------------------------
Tests run: 1, Failures: 0, Errors: 0, Skipped: 0, Time elapsed: 6.291 s - in com.example.trabalhoAvaliativo.TrabalhoAvaliativoApplicationTests
